<svg width="37" height="26" viewBox="0 0 37 26" fill="none" xmlns="http://www.w3.org/2000/svg">
<path d="M1 12.862C8.48276 14.1493 25.331 15.4206 32.8621 10.2068" stroke="black" stroke-width="5"/>
<path d="M20.793 2C23.8504 4.57471 30.6895 9.57931 33.5861 9C37.2068 8.27586 28.7585 20.5862 22.9654 23" stroke="black" stroke-width="5"/>
</svg>
