<svg width="1994" height="1053" viewBox="0 0 1994 1053" fill="none" xmlns="http://www.w3.org/2000/svg">
<path d="M1887 1049.5C1762.83 896.667 1392.2 645 903 861C413.8 1077 279.777 839.154 273.915 693.231C280.062 446.732 37.1177 301.931 10.7867 369.104C-15.5443 436.276 58.7611 422.714 117.743 405.686C164.929 392.064 316.688 258.977 339.478 210.215C415.819 109.31 613.9 -59.5 795.5 72.5C977.1 204.5 1376.17 127.5 1553 72.5001C1681.17 16.3334 1947.8 -57.1999 1989 98.0001" stroke="#7EC6EA" stroke-width="9"/>
</svg>
