<svg width="602" height="17" viewBox="0 0 602 17" fill="none" xmlns="http://www.w3.org/2000/svg">
<path d="M601 12.6802C306.55 12.9513 179.89 0.478462 236.038 3.46111C292.186 6.44375 348.334 17.8321 236.038 12.6802C146.201 8.55862 41.914 8.52244 0.999981 9.01954" stroke="#7EC6EA" stroke-width="5"/>
</svg>
