<svg width="606" height="526" viewBox="0 0 606 526" fill="none" xmlns="http://www.w3.org/2000/svg">
<path d="M201 23.0001C275 68.0001 325.5 54.5001 422.5 43.0001C519.5 31.5001 528 146 532.5 176.5C537 207 623 250 596 297C569 344 347.5 379 400.5 338C453.5 297 487 406.5 422.5 491.5C370.9 559.5 167.333 493.167 72 451.5C32.6667 423 -30.8 347.9 30 275.5C106 185 54 -64.9999 201 23.0001Z" stroke="#7EC6EA" stroke-width="9"/>
</svg>
