<svg width="47" height="153" viewBox="0 0 47 153" fill="none" xmlns="http://www.w3.org/2000/svg">
<path d="M3 3C3 3 31.84 22.38 39.77 45.94C47.7 69.5 43.29 92.62 32.5 120.58C21.71 148.54 25.5 147.66 25.5 147.66L33.87 149.66" stroke="#9AC1D1" stroke-width="5" stroke-linecap="round" stroke-linejoin="round"/>
<path d="M20.5501 51.5699C25.1451 51.5699 28.8701 47.8449 28.8701 43.2499C28.8701 38.6549 25.1451 34.9299 20.5501 34.9299C15.9551 34.9299 12.2301 38.6549 12.2301 43.2499C12.2301 47.8449 15.9551 51.5699 20.5501 51.5699Z" stroke="#9AC1D1" stroke-width="5" stroke-linecap="round" stroke-linejoin="round"/>
</svg>
